…
.. code:: r

    print (store_ids)


.. parsed-literal::

    # A tibble: 150 x 2
               air_store_id         hpg_store_id
                      <chr>                <chr>
     1 air_63b13c56b7201bd9 hpg_4bc649e72e2a239a
     2 air_a24bf50c3e90d583 hpg_c34b496d0305a809
     3 air_c7f78b4f3cba33ff hpg_cd8ae0d9bbd58ff9
     4 air_947eb2cae4f3e8f2 hpg_de24ea49dc25d6b8
     5 air_965b2e0cf4119003 hpg_653238a84804d8e7
     6 air_a38f25e3399d1b25 hpg_50378da9ffb9b6cd
     7 air_3c938075889fc059 hpg_349b1b92f98b175e
     8 air_68301bcb11e2f389 hpg_2c09f3abb2220659
     9 air_5f6fa1b897fe80d5 hpg_40aff6385800ebb1
    10 air_00a91d42b08b08d9 hpg_fbe603376b5980fc
    # ... with 140 more rows
…
.. code:: r

    library('dplyr')
    library('lubridate')#日期处理
    library('ggplot2')

.. code:: r

    air_visits <- air_visits %>% mutate(visit_date = ymd(visit_date))
    print(air_visits)#'visit_date 转换为date格式'


.. parsed-literal::

    # A tibble: 252,108 x 3
               air_store_id visit_date visitors
                      <chr>     <date>    <int>
     1 air_ba937bf13d40fb24 2016-01-13       25
     2 air_ba937bf13d40fb24 2016-01-14       32
     3 air_ba937bf13d40fb24 2016-01-15       29
     4 air_ba937bf13d40fb24 2016-01-16       22
     5 air_ba937bf13d40fb24 2016-01-18        6
     6 air_ba937bf13d40fb24 2016-01-19        9
     7 air_ba937bf13d40fb24 2016-01-20       31
     8 air_ba937bf13d40fb24 2016-01-21       21
     9 air_ba937bf13d40fb24 2016-01-22       18
    10 air_ba937bf13d40fb24 2016-01-23       26
    # ... with 252,098 more rows
…
    holidays <- holidays %>%
      mutate(holiday_flg = as.logical(holiday_flg),
             date = ymd(calendar_date))


.. code:: r

    print (holidays)


.. parsed-literal::

    # A tibble: 517 x 4
       calendar_date day_of_week holiday_flg       date
               <chr>       <chr>       <lgl>     <date>
     1    2016-01-01      Friday        TRUE 2016-01-01
     2    2016-01-02    Saturday        TRUE 2016-01-02
     3    2016-01-03      Sunday        TRUE 2016-01-03
     4    2016-01-04      Monday       FALSE 2016-01-04
     5    2016-01-05     Tuesday       FALSE 2016-01-05
     6    2016-01-06   Wednesday       FALSE 2016-01-06
     7    2016-01-07    Thursday       FALSE 2016-01-07
     8    2016-01-08      Friday       FALSE 2016-01-08
     9    2016-01-09    Saturday       FALSE 2016-01-09
    10    2016-01-10      Sunday       FALSE 2016-01-10
    # ... with 507 more rows


.. code:: r

    print (air_visits)


.. parsed-literal::

    # A tibble: 252,108 x 3
               air_store_id visit_date visitors
                      <chr>     <date>    <int>
     1 air_ba937bf13d40fb24 2016-01-13       25
     2 air_ba937bf13d40fb24 2016-01-14       32
     3 air_ba937bf13d40fb24 2016-01-15       29
     4 air_ba937bf13d40fb24 2016-01-16       22
     5 air_ba937bf13d40fb24 2016-01-18        6
     6 air_ba937bf13d40fb24 2016-01-19        9
     7 air_ba937bf13d40fb24 2016-01-20       31
     8 air_ba937bf13d40fb24 2016-01-21       21
     9 air_ba937bf13d40fb24 2016-01-22       18
    10 air_ba937bf13d40fb24 2016-01-23       26
    # ... with 252,098 more rows


.. code:: r

    print(summarise(group_by(air_visits,visit_date),sum(visitors)))
    #summary()是一个基础包中的重要统计描述函数，同样的在dplyr中summarise()函数也可以对数据进行统计描述。


.. parsed-literal::

    # A tibble: 478 x 2
       visit_date `sum(visitors)`
           <date>           <int>
     1 2016-01-01            1033
     2 2016-01-02            1764
     3 2016-01-03            2368
     4 2016-01-04            3326
     5 2016-01-05            3927
     6 2016-01-06            4154
     7 2016-01-07            4431
     8 2016-01-08            6115
     9 2016-01-09            7306
    10 2016-01-10            6066
    # ... with 468 more rows
…
Let’s see how our reservations data compares to the actual visitor
numbers. We start with the air restaurants and visualise their visitor
volume through reservations for each day, alongside the hours of these
visits and the time between making a reservation and visiting the
restaurant:

.. code:: r

    print (air_reserve)


.. parsed-literal::

    # A tibble: 92,378 x 4
               air_store_id      visit_datetime    reserve_datetime
                      <chr>              <dttm>              <dttm>
     1 air_877f79706adbfb06 2016-01-01 19:00:00 2016-01-01 16:00:00
     2 air_db4b38ebe7a7ceff 2016-01-01 19:00:00 2016-01-01 19:00:00
     3 air_db4b38ebe7a7ceff 2016-01-01 19:00:00 2016-01-01 19:00:00
     4 air_877f79706adbfb06 2016-01-01 20:00:00 2016-01-01 16:00:00
     5 air_db80363d35f10926 2016-01-01 20:00:00 2016-01-01 01:00:00
     6 air_db80363d35f10926 2016-01-02 01:00:00 2016-01-01 16:00:00
     7 air_db80363d35f10926 2016-01-02 01:00:00 2016-01-01 15:00:00
     8 air_3bb99a1fe0583897 2016-01-02 16:00:00 2016-01-02 14:00:00
     9 air_3bb99a1fe0583897 2016-01-02 16:00:00 2016-01-01 20:00:00
    10 air_2b8b29ddfd35018e 2016-01-02 17:00:00 2016-01-02 17:00:00
    # ... with 92,368 more rows, and 1 more variables: reserve_visitors <int>
…
